{
  "id": "2412941",
  "name": "wsmall-mob",
  "font_family": "iconfont",
  "css_prefix_text": "my-icon-",
  "description": "商城移动端",
  "glyphs": [
    {
      "icon_id": "20835790",
      "name": "membership-center_services-quarantine-ticket",
      "font_class": "membership-center_services-quarantine-ticket",
      "unicode": "e65d",
      "unicode_decimal": 58973
    },
    {
      "icon_id": "20729753",
      "name": "bidding_wechat-logo",
      "font_class": "bidding_wechat-logo",
      "unicode": "e65c",
      "unicode_decimal": 58972
    },
    {
      "icon_id": "20718040",
      "name": "chick-bidding_minus",
      "font_class": "chick-bidding_minus",
      "unicode": "e659",
      "unicode_decimal": 58969
    },
    {
      "icon_id": "20718041",
      "name": "chick-bidding_plus",
      "font_class": "chick-bidding_plus",
      "unicode": "e65a",
      "unicode_decimal": 58970
    },
    {
      "icon_id": "20717511",
      "name": "chick-bidding_triangle",
      "font_class": "chick-bidding_triangle",
      "unicode": "e65b",
      "unicode_decimal": 58971
    },
    {
      "icon_id": "20715192",
      "name": "common_plus",
      "font_class": "common_plus",
      "unicode": "e657",
      "unicode_decimal": 58967
    },
    {
      "icon_id": "20715193",
      "name": "common_minus",
      "font_class": "common_minus",
      "unicode": "e658",
      "unicode_decimal": 58968
    },
    {
      "icon_id": "20713628",
      "name": "news_head",
      "font_class": "news_head",
      "unicode": "e656",
      "unicode_decimal": 58966
    },
    {
      "icon_id": "20405274",
      "name": "group-buying_play",
      "font_class": "group-buying_play",
      "unicode": "e655",
      "unicode_decimal": 58965
    },
    {
      "icon_id": "20404982",
      "name": "bidding_suspend",
      "font_class": "bidding_suspend",
      "unicode": "e654",
      "unicode_decimal": 58964
    },
    {
      "icon_id": "20404981",
      "name": "bidding_reduce",
      "font_class": "bidding_reduce",
      "unicode": "e653",
      "unicode_decimal": 58963
    },
    {
      "icon_id": "20404974",
      "name": "bidding_plus",
      "font_class": "bidding_plus",
      "unicode": "e652",
      "unicode_decimal": 58962
    },
    {
      "icon_id": "20404864",
      "name": "bidding_location",
      "font_class": "bidding_location",
      "unicode": "e651",
      "unicode_decimal": 58961
    },
    {
      "icon_id": "20404781",
      "name": "bidding_close",
      "font_class": "bidding_close",
      "unicode": "e650",
      "unicode_decimal": 58960
    },
    {
      "icon_id": "20404357",
      "name": "membership_qichuan-gray",
      "font_class": "membership_qichuan-gray",
      "unicode": "e64f",
      "unicode_decimal": 58959
    },
    {
      "icon_id": "20404341",
      "name": "membership_attendance_gray",
      "font_class": "membership_attendance_gray",
      "unicode": "e64e",
      "unicode_decimal": 58958
    },
    {
      "icon_id": "20402260",
      "name": "flash-sale_wechat",
      "font_class": "flash-sale_wechat",
      "unicode": "e64d",
      "unicode_decimal": 58957
    },
    {
      "icon_id": "20402256",
      "name": "flash-sale_triangle",
      "font_class": "flash-sale_triangle",
      "unicode": "e64c",
      "unicode_decimal": 58956
    },
    {
      "icon_id": "20402237",
      "name": "flash-sale_remind",
      "font_class": "flash-sale_remind",
      "unicode": "e64b",
      "unicode_decimal": 58955
    },
    {
      "icon_id": "20402235",
      "name": "flash-sale_phone",
      "font_class": "flash-sale_phone",
      "unicode": "e64a",
      "unicode_decimal": 58954
    },
    {
      "icon_id": "20388003",
      "name": "home_chicks",
      "font_class": "home_chicks",
      "unicode": "e646",
      "unicode_decimal": 58950
    },
    {
      "icon_id": "20388004",
      "name": "home_oldchicks",
      "font_class": "home_oldchicks",
      "unicode": "e648",
      "unicode_decimal": 58952
    },
    {
      "icon_id": "20388005",
      "name": "home_theend",
      "font_class": "home_theend",
      "unicode": "e649",
      "unicode_decimal": 58953
    },
    {
      "icon_id": "20387806",
      "name": "home_index-search",
      "font_class": "home_index-search",
      "unicode": "e647",
      "unicode_decimal": 58951
    },
    {
      "icon_id": "20376981",
      "name": "help-center_track-order",
      "font_class": "help-center_track-order",
      "unicode": "e645",
      "unicode_decimal": 58949
    },
    {
      "icon_id": "20376980",
      "name": "help-center_search",
      "font_class": "help-center_search",
      "unicode": "e644",
      "unicode_decimal": 58948
    },
    {
      "icon_id": "20376977",
      "name": "help-center_sales-process",
      "font_class": "help-center_sales-process",
      "unicode": "e643",
      "unicode_decimal": 58947
    },
    {
      "icon_id": "20376962",
      "name": "help-center_register",
      "font_class": "help-center_register",
      "unicode": "e642",
      "unicode_decimal": 58946
    },
    {
      "icon_id": "20376955",
      "name": "help-center_evaluate",
      "font_class": "help-center_evaluate",
      "unicode": "e641",
      "unicode_decimal": 58945
    },
    {
      "icon_id": "20376940",
      "name": "help-center_ask",
      "font_class": "help-center_ask",
      "unicode": "e640",
      "unicode_decimal": 58944
    },
    {
      "icon_id": "20376931",
      "name": "help-center_answer",
      "font_class": "help-center_answer",
      "unicode": "e63f",
      "unicode_decimal": 58943
    },
    {
      "icon_id": "20375935",
      "name": "logistics_date",
      "font_class": "logistics_date",
      "unicode": "e63e",
      "unicode_decimal": 58942
    },
    {
      "icon_id": "20375838",
      "name": "feedback_star",
      "font_class": "feedback_star",
      "unicode": "e63d",
      "unicode_decimal": 58941
    },
    {
      "icon_id": "20375831",
      "name": "feedback_play-btn",
      "font_class": "feedback_play-btn",
      "unicode": "e63c",
      "unicode_decimal": 58940
    },
    {
      "icon_id": "20375809",
      "name": "feedback_ok-pig",
      "font_class": "feedback_ok-pig",
      "unicode": "e63b",
      "unicode_decimal": 58939
    },
    {
      "icon_id": "20375783",
      "name": "feedback_edit",
      "font_class": "feedback_edit",
      "unicode": "e63a",
      "unicode_decimal": 58938
    },
    {
      "icon_id": "20375779",
      "name": "feedback_colose",
      "font_class": "feedback_close",
      "unicode": "e639",
      "unicode_decimal": 58937
    },
    {
      "icon_id": "20374616",
      "name": "tabbar_home",
      "font_class": "tabbar_home",
      "unicode": "e637",
      "unicode_decimal": 58935
    },
    {
      "icon_id": "20374634",
      "name": "tabbar_home",
      "font_class": "tabbar_home-active",
      "unicode": "e638",
      "unicode_decimal": 58936
    },
    {
      "icon_id": "20372727",
      "name": "membership-center_services-feedback",
      "font_class": "membership-center_services-feedback",
      "unicode": "e625",
      "unicode_decimal": 58917
    },
    {
      "icon_id": "20372728",
      "name": "membership-center_services-help-center",
      "font_class": "membership-center_services-help-center",
      "unicode": "e626",
      "unicode_decimal": 58918
    },
    {
      "icon_id": "20372729",
      "name": "membership-center_services-flash-sale",
      "font_class": "membership-center_services-flash-sale",
      "unicode": "e627",
      "unicode_decimal": 58919
    },
    {
      "icon_id": "20372730",
      "name": "membership-center_services-logistics-application",
      "font_class": "membership-center_services-logistics-application",
      "unicode": "e628",
      "unicode_decimal": 58920
    },
    {
      "icon_id": "20372731",
      "name": "membership-center_services-month-demand",
      "font_class": "membership-center_services-month-demand",
      "unicode": "e629",
      "unicode_decimal": 58921
    },
    {
      "icon_id": "20372732",
      "name": "membership-center_services-quality-evaluation",
      "font_class": "membership-center_services-quality-evaluation",
      "unicode": "e62a",
      "unicode_decimal": 58922
    },
    {
      "icon_id": "20372733",
      "name": "membership-center_services-my-contract",
      "font_class": "membership-center_services-my-contract",
      "unicode": "e62b",
      "unicode_decimal": 58923
    },
    {
      "icon_id": "20372734",
      "name": "membership-center_services-questionnaire",
      "font_class": "membership-center_services-questionnaire",
      "unicode": "e62c",
      "unicode_decimal": 58924
    },
    {
      "icon_id": "20372735",
      "name": "membership-center_services-special-sale",
      "font_class": "membership-center_services-special-sale",
      "unicode": "e62d",
      "unicode_decimal": 58925
    },
    {
      "icon_id": "20372736",
      "name": "membership-center_services-withholding-agreement",
      "font_class": "membership-center_services-withholding-agreement",
      "unicode": "e62e",
      "unicode_decimal": 58926
    },
    {
      "icon_id": "20372737",
      "name": "membership-center_services-address-management",
      "font_class": "membership-center_services-address-management",
      "unicode": "e62f",
      "unicode_decimal": 58927
    },
    {
      "icon_id": "20372738",
      "name": "membership-center_services-contact-customer-servic",
      "font_class": "membership-center_services-contact-customer-service",
      "unicode": "e630",
      "unicode_decimal": 58928
    },
    {
      "icon_id": "20372739",
      "name": "membership-center_services-account-settings",
      "font_class": "membership-center_services-account-settings",
      "unicode": "e631",
      "unicode_decimal": 58929
    },
    {
      "icon_id": "20372740",
      "name": "membership-center_services-bidding",
      "font_class": "membership-center_services-bidding",
      "unicode": "e632",
      "unicode_decimal": 58930
    },
    {
      "icon_id": "20372695",
      "name": "membership-center_wallet-coupon",
      "font_class": "membership-center_wallet-coupon",
      "unicode": "e620",
      "unicode_decimal": 58912
    },
    {
      "icon_id": "20372696",
      "name": "membership-center_wallet-recharge",
      "font_class": "membership-center_wallet-recharge",
      "unicode": "e621",
      "unicode_decimal": 58913
    },
    {
      "icon_id": "20372697",
      "name": "membership-center_wallet-balance",
      "font_class": "membership-center_wallet-balance",
      "unicode": "e622",
      "unicode_decimal": 58914
    },
    {
      "icon_id": "20372698",
      "name": "membership-center_settings",
      "font_class": "membership-center_settings",
      "unicode": "e623",
      "unicode_decimal": 58915
    },
    {
      "icon_id": "20372699",
      "name": "membership-center_wallet-rebate",
      "font_class": "membership-center_wallet-rebate",
      "unicode": "e624",
      "unicode_decimal": 58916
    },
    {
      "icon_id": "20368084",
      "name": "membership-center_order-paid",
      "font_class": "membership-center_order-paid",
      "unicode": "e61a",
      "unicode_decimal": 58906
    },
    {
      "icon_id": "20368085",
      "name": "membership-center_order-express",
      "font_class": "membership-center_order-express",
      "unicode": "e61b",
      "unicode_decimal": 58907
    },
    {
      "icon_id": "20368086",
      "name": "membership-center_order-pickup",
      "font_class": "membership-center_order-pickup",
      "unicode": "e61c",
      "unicode_decimal": 58908
    },
    {
      "icon_id": "20368087",
      "name": "membership-center_order-return",
      "font_class": "membership-center_order-return",
      "unicode": "e61d",
      "unicode_decimal": 58909
    },
    {
      "icon_id": "20368088",
      "name": "membership-center_order-confirmed",
      "font_class": "membership-center_order-confirmed",
      "unicode": "e61e",
      "unicode_decimal": 58910
    },
    {
      "icon_id": "20368089",
      "name": "membership-center_order-evaluate",
      "font_class": "membership-center_order-evaluate",
      "unicode": "e61f",
      "unicode_decimal": 58911
    },
    {
      "icon_id": "20364862",
      "name": "login_refresh",
      "font_class": "login_refresh",
      "unicode": "e616",
      "unicode_decimal": 58902
    },
    {
      "icon_id": "20364869",
      "name": "login_smscode",
      "font_class": "login_smscode",
      "unicode": "e619",
      "unicode_decimal": 58905
    },
    {
      "icon_id": "20364850",
      "name": "login_imgcode",
      "font_class": "login_imgcode",
      "unicode": "e612",
      "unicode_decimal": 58898
    },
    {
      "icon_id": "20364566",
      "name": "login_password",
      "font_class": "login_password",
      "unicode": "e613",
      "unicode_decimal": 58899
    },
    {
      "icon_id": "20364567",
      "name": "login_phone",
      "font_class": "login_phone",
      "unicode": "e614",
      "unicode_decimal": 58900
    },
    {
      "icon_id": "20364568",
      "name": "login_plaintext",
      "font_class": "login_plaintext",
      "unicode": "e615",
      "unicode_decimal": 58901
    },
    {
      "icon_id": "20364570",
      "name": "login_user",
      "font_class": "login_user",
      "unicode": "e617",
      "unicode_decimal": 58903
    },
    {
      "icon_id": "20364571",
      "name": "login_ciphertext",
      "font_class": "login_ciphertext",
      "unicode": "e618",
      "unicode_decimal": 58904
    },
    {
      "icon_id": "20361391",
      "name": "bidding-chick_reduce-yellow",
      "font_class": "bidding-chick_reduce-yellow",
      "unicode": "e60b",
      "unicode_decimal": 58891
    },
    {
      "icon_id": "20361387",
      "name": "bidding-chick_plus-yellow",
      "font_class": "bidding-chick_plus-yellow",
      "unicode": "e607",
      "unicode_decimal": 58887
    },
    {
      "icon_id": "20330698",
      "name": "bidding-chick_plus",
      "font_class": "bidding-chick_plus",
      "unicode": "e608",
      "unicode_decimal": 58888
    },
    {
      "icon_id": "20330682",
      "name": "bidding-chick_reduce",
      "font_class": "bidding-chick_reduce",
      "unicode": "e606",
      "unicode_decimal": 58886
    },
    {
      "icon_id": "20330594",
      "name": "bidding-chick_triangle-down",
      "font_class": "bidding-chick_triangle-down",
      "unicode": "e601",
      "unicode_decimal": 58881
    },
    {
      "icon_id": "20324731",
      "name": "news_order-summary-small",
      "font_class": "news_order-summary-small",
      "unicode": "e60c",
      "unicode_decimal": 58892
    },
    {
      "icon_id": "20324732",
      "name": "news_notice-small",
      "font_class": "news_notice-small",
      "unicode": "e611",
      "unicode_decimal": 58897
    },
    {
      "icon_id": "20324692",
      "name": "news_customer-service",
      "font_class": "news_customer-service",
      "unicode": "e610",
      "unicode_decimal": 58896
    },
    {
      "icon_id": "20320264",
      "name": "news_clear-unread",
      "font_class": "news_clear-unread",
      "unicode": "e609",
      "unicode_decimal": 58889
    },
    {
      "icon_id": "20320265",
      "name": "news_notice",
      "font_class": "news_notice",
      "unicode": "e60a",
      "unicode_decimal": 58890
    },
    {
      "icon_id": "20320268",
      "name": "news_order-summary",
      "font_class": "news_order-summary",
      "unicode": "e60d",
      "unicode_decimal": 58893
    },
    {
      "icon_id": "20320269",
      "name": "news_feedback-message",
      "font_class": "news_feedback-message",
      "unicode": "e60e",
      "unicode_decimal": 58894
    },
    {
      "icon_id": "20320270",
      "name": "news_feedback-message-small",
      "font_class": "news_feedback-message-small",
      "unicode": "e60f",
      "unicode_decimal": 58895
    },
    {
      "icon_id": "20311752",
      "name": "tabbar_goods",
      "font_class": "tabbar_goods",
      "unicode": "e602",
      "unicode_decimal": 58882
    },
    {
      "icon_id": "20311783",
      "name": "tabbar_mine",
      "font_class": "tabbar_mine",
      "unicode": "e603",
      "unicode_decimal": 58883
    },
    {
      "icon_id": "20311784",
      "name": "tabbar_shoppingcart",
      "font_class": "tabbar_shoppingcart",
      "unicode": "e604",
      "unicode_decimal": 58884
    },
    {
      "icon_id": "20311785",
      "name": "tabbar_news",
      "font_class": "tabbar_news",
      "unicode": "e605",
      "unicode_decimal": 58885
    },
    {
      "icon_id": "20373073",
      "name": "tabbar_mine",
      "font_class": "tabbar_mine-active",
      "unicode": "e634",
      "unicode_decimal": 58932
    },
    {
      "icon_id": "20373095",
      "name": "tabbar_shoppingcart",
      "font_class": "tabbar_shoppingcart-active",
      "unicode": "e635",
      "unicode_decimal": 58933
    },
    {
      "icon_id": "20373100",
      "name": "tabbar_news",
      "font_class": "tabbar_news-active",
      "unicode": "e636",
      "unicode_decimal": 58934
    },
    {
      "icon_id": "20373033",
      "name": "tabbar_goods",
      "font_class": "tabbar_goods-active",
      "unicode": "e633",
      "unicode_decimal": 58931
    }
  ]
}
