<?xml version="1.0" encoding="UTF-8"?>
<svg width="58px" height="58px" viewBox="0 0 58 58" version="1.1" xmlns="http://www.w3.org/2000/svg" xmlns:xlink="http://www.w3.org/1999/xlink">
    <!-- Generator: Sketch 55.2 (78181) - https://sketchapp.com -->
    <title>download</title>
    <desc>Created with Sketch.</desc>
    <defs>
        <circle id="path-1" cx="25" cy="25" r="25"></circle>
        <filter x="-14.0%" y="-10.0%" width="128.0%" height="128.0%" filterUnits="objectBoundingBox" id="filter-2">
            <feOffset dx="0" dy="2" in="SourceAlpha" result="shadowOffsetOuter1"></feOffset>
            <feGaussianBlur stdDeviation="2" in="shadowOffsetOuter1" result="shadowBlurOuter1"></feGaussianBlur>
            <feColorMatrix values="0 0 0 0 0.434702978   0 0 0 0 0.445763673   0 0 0 0 0.478204257  0 0 0 0.5 0" type="matrix" in="shadowBlurOuter1"></feColorMatrix>
        </filter>
    </defs>
    <g id="页面1" stroke="none" stroke-width="1" fill="none" fill-rule="evenodd">
        <g id="对账单" transform="translate(-298.000000, -658.000000)">
            <g id="编组-3" transform="translate(302.000000, 660.000000)">
                <g id="download">
                    <g id="椭圆形">
                        <use fill="black" fill-opacity="1" filter="url(#filter-2)" xlink:href="#path-1"></use>
                        <use fill="#FFCC3E" fill-rule="evenodd" xlink:href="#path-1"></use>
                    </g>
                    <g id="编组-4" transform="translate(16.000000, 10.000000)" stroke="#464646" stroke-linecap="square" stroke-width="2">
                        <polyline id="直线-2" points="14.875 9.52941176 8.37491062 15.8823529 2.125 9.52941176"></polyline>
                        <path d="M0.369565217,17.2058824 L16.2656178,17.2058824" id="直线-3"></path>
                        <path d="M8.5,0.370588235 L8.5,14.8235294" id="直线-2"></path>
                    </g>
                    <text id="下载" font-family="SourceHanSansCN-Regular, Source Han Sans CN" font-size="12" font-weight="normal" fill="#333333">
                        <tspan x="12" y="43">下载</tspan>
                    </text>
                </g>
            </g>
        </g>
    </g>
</svg>