<?xml version="1.0" encoding="UTF-8"?>
<svg width="6px" height="2px" viewBox="0 0 6 2" version="1.1" xmlns="http://www.w3.org/2000/svg" xmlns:xlink="http://www.w3.org/1999/xlink">
    <!-- Generator: Sketch 55.2 (78181) - https://sketchapp.com -->
    <title>- 2</title>
    <desc>Created with Sketch.</desc>
    <g id="页面1" stroke="none" stroke-width="1" fill="none" fill-rule="evenodd">
        <g id="月度需求-已确认备份" transform="translate(-178.000000, -342.000000)" fill="#FFFFFF" fill-rule="nonzero">
            <g id="三元杂大猪" transform="translate(0.000000, 292.000000)">
                <g id="编组-7" transform="translate(168.000000, 38.000000)">
                    <g id="--2" transform="translate(10.000000, 12.037037)">
                        <polygon id="-" points="0 0 6 0 6 1 0 1"></polygon>
                    </g>
                </g>
            </g>
        </g>
    </g>
</svg>