<?xml version="1.0" encoding="UTF-8"?>
<svg width="18px" height="16px" viewBox="0 0 18 16" version="1.1" xmlns="http://www.w3.org/2000/svg" xmlns:xlink="http://www.w3.org/1999/xlink">
    <!-- Generator: Sketch 55.2 (78181) - https://sketchapp.com -->
    <title>share</title>
    <desc>Created with Sketch.</desc>
    <g id="页面1" stroke="none" stroke-width="1" fill="none" fill-rule="evenodd" stroke-linecap="round">
        <g id="头条内页展示" transform="translate(-342.000000, -13.000000)" stroke="#343537">
            <g id="share" transform="translate(343.000000, 12.000000)">
                <path d="M14,11.582485 L14,15.5172414 C14,15.7838616 13.7838616,16 13.5172414,16 L0.482758621,16 C0.216138397,16 0,15.7838616 0,15.5172414 L0,2.48275862 C0,2.2161384 0.216138397,2 0.482758621,2 L6.83872262,2" id="路径"></path>
                <path d="M12.1860886,1.30769231 L15.6455671,4.81975812 C15.7246011,4.88424191 15.7246011,4.9887908 15.6455671,5.0532746 L12.0709679,8.50522485" id="形状" transform="translate(13.887905, 4.906459) rotate(-16.000000) translate(-13.887905, -4.906459) "></path>
                <path d="M15.6923077,4.82956646 C10.9875792,4.82956646 6.95146188,7.52614264 5.23076923,11.368028" id="形状" transform="translate(10.461538, 8.098797) rotate(-6.000000) translate(-10.461538, -8.098797) "></path>
            </g>
        </g>
    </g>
</svg>