<?xml version="1.0" encoding="UTF-8"?>
<svg width="36px" height="16px" viewBox="0 0 36 16" version="1.1" xmlns="http://www.w3.org/2000/svg" xmlns:xlink="http://www.w3.org/1999/xlink">
    <!-- Generator: Sketch 55.2 (78181) - https://sketchapp.com -->
    <title>vip 5</title>
    <desc>Created with Sketch.</desc>
    <defs>
        <linearGradient x1="50%" y1="0%" x2="50%" y2="100%" id="linearGradient-1">
            <stop stop-color="#FF1B41" offset="0%"></stop>
            <stop stop-color="#F30129" offset="100%"></stop>
        </linearGradient>
    </defs>
    <g id="页面1" stroke="none" stroke-width="1" fill="none" fill-rule="evenodd">
        <g id="积分权限说明" transform="translate(-26.000000, -450.000000)">
            <g id="vip-5" transform="translate(26.000000, 450.000000)">
                <rect id="矩形" fill="url(#linearGradient-1)" x="0" y="0" width="36" height="16" rx="4"></rect>
                <path d="M4.196,3.508 C4.18666662,3.47999986 4.182,3.43800028 4.182,3.382 C4.182,3.2886662 4.20999972,3.20466704 4.266,3.13 C4.32200028,3.05533296 4.3966662,2.99000028 4.49,2.934 C4.5833338,2.87799972 4.68366613,2.83600014 4.791,2.808 C4.89833387,2.77999986 5.00333282,2.766 5.106,2.766 C5.23666732,2.766 5.34633289,2.7893331 5.435,2.836 C5.52366711,2.8826669 5.58666648,2.96199944 5.624,3.074 L7.934,11.054 L10.23,3.074 C10.2673335,2.96199944 10.3303329,2.8826669 10.419,2.836 C10.5076671,2.7893331 10.6126661,2.766 10.734,2.766 C10.8366672,2.766 10.9439994,2.78233317 11.056,2.815 C11.1680006,2.84766683 11.2683329,2.89199972 11.357,2.948 C11.4456671,3.00400028 11.520333,3.06933296 11.581,3.144 C11.641667,3.21866704 11.672,3.29799958 11.672,3.382 C11.672,3.41000014 11.6626668,3.45199972 11.644,3.508 L8.872,12.58 C8.8253331,12.7480008 8.71100091,12.8739996 8.529,12.958 C8.34699909,13.0420004 8.14866774,13.084 7.934,13.084 C7.71933226,13.084 7.52333422,13.0420004 7.346,12.958 C7.16866578,12.8739996 7.05200028,12.7480008 6.996,12.58 L4.196,3.508 Z M12.778,3.242 C12.778,3.07399916 12.8549992,2.95266704 13.009,2.878 C13.1630008,2.80333296 13.3333324,2.766 13.52,2.766 C13.7066676,2.766 13.8769992,2.80333296 14.031,2.878 C14.1850008,2.95266704 14.262,3.07399916 14.262,3.242 L14.262,12.51 C14.262,12.6686675 14.1850008,12.7899996 14.031,12.874 C13.8769992,12.9580004 13.7066676,13 13.52,13 C13.3333324,13 13.1630008,12.9580004 13.009,12.874 C12.8549992,12.7899996 12.778,12.6686675 12.778,12.51 L12.778,3.242 Z M16.11,3.242 C16.11,3.11133268 16.1613328,2.9993338 16.264,2.906 C16.3666672,2.8126662 16.5066658,2.766 16.684,2.766 L19.414,2.766 C19.8433355,2.766 20.2446648,2.81966613 20.618,2.927 C20.9913352,3.03433387 21.3156653,3.21166543 21.591,3.459 C21.8663347,3.70633457 22.0833325,4.02599804 22.242,4.418 C22.4006675,4.81000196 22.48,5.2859972 22.48,5.846 L22.48,5.958 C22.48,6.5180028 22.3983341,6.99399804 22.235,7.386 C22.0716658,7.77800196 21.8476681,8.09766543 21.563,8.345 C21.2783319,8.59233457 20.9446686,8.77199944 20.562,8.884 C20.1793314,8.99600056 19.7686689,9.052 19.33,9.052 L17.594,9.052 L17.594,12.51 C17.594,12.6686675 17.5170008,12.7899996 17.363,12.874 C17.2089992,12.9580004 17.0386676,13 16.852,13 C16.6653324,13 16.4950008,12.9580004 16.341,12.874 C16.1869992,12.7899996 16.11,12.6686675 16.11,12.51 L16.11,3.242 Z M17.594,4.082 L17.594,7.876 L19.33,7.876 C19.8526693,7.876 20.2609985,7.72666816 20.555,7.428 C20.8490015,7.12933184 20.996,6.67200308 20.996,6.056 L20.996,5.888 C20.996,5.27199692 20.8490015,4.81700147 20.555,4.523 C20.2609985,4.22899853 19.8526693,4.082 19.33,4.082 L17.594,4.082 Z M29.06,6.798 C29.5080022,6.798 29.9233314,6.84933282 30.306,6.952 C30.6886686,7.05466718 31.0199986,7.2226655 31.3,7.456 C31.5800014,7.6893345 31.8016658,7.9926648 31.965,8.366 C32.1283341,8.7393352 32.21,9.19666396 32.21,9.738 L32.21,10.004 C32.21,10.5640028 32.1283341,11.039998 31.965,11.432 C31.8016658,11.824002 31.5776681,12.1413321 31.293,12.384 C31.0083319,12.6266679 30.6746686,12.8039994 30.292,12.916 C29.9093314,13.0280006 29.5033355,13.084 29.074,13.084 C28.5699975,13.084 28.122002,13.016334 27.73,12.881 C27.337998,12.745666 27.0090013,12.5636678 26.743,12.335 C26.4769987,12.1063322 26.2740007,11.8426682 26.134,11.544 C25.9939993,11.2453318 25.924,10.9326683 25.924,10.606 C25.924,10.335332 25.9893327,10.1533338 26.12,10.06 C26.2506673,9.9666662 26.4279989,9.92 26.652,9.92 C26.9600015,9.92 27.1629995,9.97599944 27.261,10.088 C27.3590005,10.2000006 27.408,10.3399992 27.408,10.508 C27.408,10.9093353 27.5666651,11.2196656 27.884,11.439 C28.2013349,11.6583344 28.5886644,11.768 29.046,11.768 C29.5780027,11.768 29.9909985,11.6256681 30.285,11.341 C30.5790015,11.0563319 30.726,10.6106697 30.726,10.004 L30.726,9.738 C30.726,9.14066368 30.5790015,8.69733478 30.285,8.408 C29.9909985,8.11866522 29.5826693,7.974 29.06,7.974 L27.03,7.974 C26.7873321,7.974 26.6216671,7.92266718 26.533,7.82 C26.4443329,7.71733282 26.4,7.57733422 26.4,7.4 C26.4,7.3533331 26.4023333,7.29733366 26.407,7.232 C26.4116667,7.16666634 26.4186666,7.1106669 26.428,7.064 L26.75,3.256 C26.7780001,2.9293317 26.889999,2.766 27.086,2.766 L31.244,2.766 C31.4026675,2.766 31.519333,2.8359993 31.594,2.976 C31.668667,3.1160007 31.706,3.26533254 31.706,3.424 C31.706,3.59200084 31.668667,3.74366599 31.594,3.879 C31.519333,4.01433401 31.4026675,4.082 31.244,4.082 L28.01,4.082 L27.814,6.798 L29.06,6.798 Z" id="VIP5" fill="#FFFFFF" fill-rule="nonzero"></path>
            </g>
        </g>
    </g>
</svg>