<?xml version="1.0" encoding="UTF-8"?>
<svg width="375px" height="268px" viewBox="0 0 375 268" version="1.1" xmlns="http://www.w3.org/2000/svg" xmlns:xlink="http://www.w3.org/1999/xlink">
    <!-- Generator: Sketch 55.2 (78181) - https://sketchapp.com -->
    <title>编组 2</title>
    <desc>Created with Sketch.</desc>
    <defs>
        <linearGradient x1="-1.11022302e-14%" y1="50%" x2="100%" y2="50%" id="linearGradient-1">
            <stop stop-color="#FFC916" offset="0%"></stop>
            <stop stop-color="#FEC300" offset="100%"></stop>
        </linearGradient>
        <linearGradient x1="50%" y1="100%" x2="50%" y2="-9.65741142%" id="linearGradient-2">
            <stop stop-color="#F8F8F8" offset="0%"></stop>
            <stop stop-color="#F8F8F8" stop-opacity="0" offset="100%"></stop>
        </linearGradient>
    </defs>
    <g id="-" stroke="none" stroke-width="1" fill="none" fill-rule="evenodd">
        <g id="首页-竞价备份" transform="translate(0.000000, -78.000000)">
            <g id="搜索栏" transform="translate(0.000000, 78.000000)">
                <g id="编组-2">
                    <rect id="矩形" fill="url(#linearGradient-1)" x="0" y="0" width="375" height="268"></rect>
                    <rect id="矩形备份-3" fill="url(#linearGradient-2)" x="0" y="134" width="375" height="134"></rect>
                </g>
            </g>
        </g>
    </g>
</svg>