<?xml version="1.0" encoding="UTF-8"?>
<svg width="13px" height="15px" viewBox="0 0 13 15" version="1.1" xmlns="http://www.w3.org/2000/svg" xmlns:xlink="http://www.w3.org/1999/xlink">
    <!-- Generator: Sketch 55.2 (78181) - https://sketchapp.com -->
    <title>编组</title>
    <desc>Created with Sketch.</desc>
    <g id="页面1" stroke="none" stroke-width="1" fill="none" fill-rule="evenodd">
        <g id="3-首页-消息" transform="translate(-19.000000, -211.000000)">
            <g id="编组" transform="translate(19.000000, 211.000000)">
                <rect id="矩形" fill="#FF9F00" x="0" y="0.5" width="13" height="14" rx="2"></rect>
                <rect id="矩形" fill="#FFFFFF" x="3" y="4" width="7" height="1" rx="0.5"></rect>
                <rect id="矩形备份" fill="#FFFFFF" x="3" y="7" width="7" height="1"></rect>
                <path d="M3.5,10 L6.5,10 C6.77614237,10 7,10.2238576 7,10.5 C7,10.7761424 6.77614237,11 6.5,11 L3.5,11 C3.22385763,11 3,10.7761424 3,10.5 C3,10.2238576 3.22385763,10 3.5,10 Z" id="矩形备份-2" fill="#FFFFFF"></path>
            </g>
        </g>
    </g>
</svg>