<?xml version="1.0" encoding="UTF-8"?>
<svg width="49px" height="49px" viewBox="0 0 49 49" version="1.1" xmlns="http://www.w3.org/2000/svg" xmlns:xlink="http://www.w3.org/1999/xlink">
    <!-- Generator: Sketch 55.2 (78181) - https://sketchapp.com -->
    <title>二星会员</title>
    <desc>Created with Sketch.</desc>
    <g id="页面1" stroke="none" stroke-width="1" fill="none" fill-rule="evenodd">
        <g id="手机端—出勤币明细分录" transform="translate(-164.000000, -95.000000)">
            <g id="二星会员" transform="translate(164.000000, 95.000000)">
                <circle id="椭圆形备份" fill="#898C9C" cx="24.5" cy="24.5" r="24.5"></circle>
                <path d="M23.0999121,34.3849754 L20.0038254,36.0562854 C18.6794619,36.771195 17.0263045,36.2771349 16.311395,34.9527715 C16.0169819,34.4073738 15.9172842,33.7779072 16.0287505,33.1682246 L16.6615174,29.7072079 C16.9038774,28.381582 16.4624552,27.0230242 15.4871985,26.0930259 L12.9409448,23.6649356 C11.8517746,22.6263103 11.8107999,20.9013913 12.8494252,19.8122211 C13.2771506,19.3636805 13.8450006,19.0743464 14.4592883,18.991955 L17.9464464,18.524239 C19.282085,18.3450962 20.4377433,17.5054613 21.0208532,16.2905517 L22.5432687,13.1185994 C23.1944879,11.7617842 24.8223215,11.1897856 26.1791368,11.8410049 C26.7378987,12.1091891 27.1885471,12.5598375 27.4567313,13.1185994 L28.9791468,16.2905517 C29.5622567,17.5054613 30.717915,18.3450962 32.0535536,18.524239 L35.5407117,18.991955 C37.0323575,19.1920223 38.0793887,20.5634268 37.8793214,22.0550726 C37.7969299,22.6693603 37.5075959,23.2372103 37.0590552,23.6649356 L34.5128015,26.0930259 C33.5375448,27.0230242 33.0961226,28.381582 33.3384826,29.7072079 L33.9712495,33.1682246 C34.241918,34.6486882 33.2611853,36.0682614 31.7807216,36.3389299 C31.1710389,36.4503963 30.5415723,36.3506986 29.9961746,36.0562854 L26.9000879,34.3849754 C25.7142361,33.7448364 24.2857639,33.7448364 23.0999121,34.3849754 Z" id="星形" fill="#FCFCFC" fill-rule="nonzero"></path>
                <rect id="矩形" stroke="#F1EFF8" fill="#898C9C" x="20.5" y="26.5" width="22" height="11" rx="4"></rect>
                <text id="VIP-2" fill-rule="nonzero" font-family="Dosis-SemiBold, Dosis" font-size="8" font-weight="500" fill="#FFFFFF">
                    <tspan x="23" y="35">VIP 2</tspan>
                </text>
            </g>
        </g>
    </g>
</svg>