<?xml version="1.0" encoding="UTF-8"?>
<svg width="19px" height="17px" viewBox="0 0 19 17" version="1.1" xmlns="http://www.w3.org/2000/svg" xmlns:xlink="http://www.w3.org/1999/xlink">
    <!-- Generator: Sketch 55.2 (78181) - https://sketchapp.com -->
    <title>日期</title>
    <desc>Created with Sketch.</desc>
    <g id="页面1" stroke="none" stroke-width="1" fill="none" fill-rule="evenodd" stroke-linecap="round">
        <g id="我的秒杀记录" transform="translate(-94.000000, -102.000000)" stroke="#979797">
            <g id="日期" transform="translate(95.000000, 102.365588)">
                <path d="M7.26485506,2.13441206 L9.7257244,2.13441206 M13.764877,2.63441206 L15.2105263,2.63441206 C16.1988253,2.63441206 17,3.41045183 17,4.3677454 L17,13.9010787 C17,14.8583723 16.1988253,15.6344121 15.2105263,15.6344121 L1.78947368,15.6344121 C0.801174658,15.6344121 0,14.8583723 0,13.9010787 L0,4.3677454 C0,3.41045183 0.801174658,2.63441206 1.78947368,2.63441206 L3.24561485,2.63441206" id="形状"></path>
                <path d="M5,1.00941206 L5,3.00183283" id="直线"></path>
                <path d="M12,1.00941206 L12,3.00183283" id="直线备份"></path>
                <path d="M8.5,0.701538046 L8.5,11.4327139" id="直线备份-2" transform="translate(8.500000, 6.000000) rotate(-90.000000) translate(-8.500000, -6.000000) "></path>
                <path d="M8.25,5.25 L8.25,12.75" id="直线备份-3" transform="translate(8.250000, 9.000000) rotate(-90.000000) translate(-8.250000, -9.000000) "></path>
                <path d="M8.5,6.70153805 L8.5,17.4327139" id="直线备份-5" transform="translate(8.500000, 12.000000) rotate(-90.000000) translate(-8.500000, -12.000000) "></path>
            </g>
        </g>
    </g>
</svg>