<?xml version="1.0" encoding="UTF-8"?>
<svg width="40px" height="40px" viewBox="0 0 40 40" version="1.1" xmlns="http://www.w3.org/2000/svg" xmlns:xlink="http://www.w3.org/1999/xlink">
    <!-- Generator: Sketch 55.2 (78181) - https://sketchapp.com -->
    <title>编组 4</title>
    <desc>Created with Sketch.</desc>
    <g id="-" stroke="none" stroke-width="1" fill="none" fill-rule="evenodd" stroke-linecap="round">
        <g id="4-首页" transform="translate(-122.000000, -202.000000)" stroke="#0C0C0C" stroke-width="1.5">
            <g id="搜索栏" transform="translate(0.000000, 80.000000)">
                <g id="编组-4" transform="translate(26.000000, 54.000000)">
                    <g id="icon_首页-分类-副本-8" transform="translate(102.000000, 76.000000)">
                        <path d="M18.9145833,0.268749929 C16.7483082,0.268450533 14.6887743,1.20934354 13.2708333,2.84708333 C11.4688099,0.775335892 8.67636247,-0.142258687 5.99671034,0.456815985 C3.3170582,1.05589066 1.18121465,3.07527537 0.432992758,5.71716674 C-0.315229137,8.35905812 0.444519678,11.1985165 2.41208333,13.11375 C3.0275,13.6970833 7.21,17.9641667 10.4854167,21.2804167 L11.7308333,22.5404167 C12.3141667,23.12375 12.6583333,23.3570833 13.2708333,23.3570833 C13.8133333,23.3570833 14.4841667,22.8408333 14.8079167,22.5491667 C15.1316667,22.2575 16.12625,21.2308333 16.12625,21.2308333 L20.2708333,17.0833333 C20.2708333,17.0833333 24.2083333,13.0495833 24.4416667,12.7929167 C24.9051568,12.2821501 25.2975881,11.7111626 25.6083333,11.0954167 C25.7257204,10.8608864 25.8308617,10.6204244 25.9233333,10.375" id="路径"></path>
                        <g id="编组-7" transform="translate(19.000000, 0.000000)" stroke-linejoin="round">
                            <path d="M0,4 L8,4" id="路径"></path>
                            <path d="M4,8 L4,0" id="路径"></path>
                        </g>
                    </g>
                </g>
            </g>
        </g>
    </g>
</svg>