<?xml version="1.0" encoding="UTF-8"?>
<svg width="40px" height="40px" viewBox="0 0 40 40" version="1.1" xmlns="http://www.w3.org/2000/svg" xmlns:xlink="http://www.w3.org/1999/xlink">
    <!-- Generator: Sketch 55.2 (78181) - https://sketchapp.com -->
    <title>help-centre</title>
    <desc>Created with Sketch.</desc>
    <g id="页面1" stroke="none" stroke-width="1" fill="none" fill-rule="evenodd">
        <g id="首页-入口" transform="translate(-223.000000, -135.000000)">
            <g id="help-centre" transform="translate(222.500000, 135.000000)">
                <path d="M20.5,22 C23.2614237,22 25.5,19.7614237 25.5,17 C25.5,14.2385763 23.2614237,12 20.5,12 C17.7385763,12 15.5,14.2385763 15.5,17 C15.5,17.4602373 15.873096,17.8333333 16.3333333,17.8333333 C16.7935706,17.8333333 17.1666667,17.4602373 17.1666667,17 C17.1666667,15.1590508 18.6590508,13.6666667 20.5,13.6666667 C22.3409492,13.6666667 23.8333333,15.1590508 23.8333333,17 C23.8333333,18.8409492 22.3409492,20.3333333 20.5,20.3333333 C20.0397627,20.3333333 19.6666667,20.7064294 19.6666667,21.1666667 C19.6666667,21.626904 20.0397627,22 20.5,22 Z" id="形状" fill="#0C0C0C" fill-rule="nonzero"></path>
                <circle id="椭圆形" fill="#0C0C0C" cx="20.5" cy="27" r="1"></circle>
                <path d="M19.5,21.248528 L19.5,23.551472 C19.5,24.0201011 19.9477153,24.4 20.5,24.4 C21.0522847,24.4 21.5,24.0201011 21.5,23.551472 L21.5,21.248528 C21.5,20.7798989 21.0522847,20.4 20.5,20.4 C19.9477153,20.4 19.5,20.7798989 19.5,21.248528 Z" id="直线-6" fill="#0C0C0C" fill-rule="nonzero"></path>
                <rect id="矩形" stroke="#0C0C0C" stroke-width="1.6" x="7.3" y="6.8" width="26.4" height="26.4" rx="5"></rect>
            </g>
        </g>
    </g>
</svg>